{
  "rules": {
    "no-inferrable-types": true,
    "class-name": true,
    "comment-format": [
      true,
      "check-space"
    ],
    "indent": [
      true,
      "spaces"
    ],
    "eofline": true,
    "no-duplicate-variable": true,
    "no-eval": true,
    "no-arg": true,
    "no-internal-module": true,
    "no-trailing-whitespace": true,
    "no-bitwise": true,
    "no-shadowed-variable": true,
    "one-line": [
      true,
      "check-catch",
      "check-else",
      "check-open-brace",
      "check-whitespace"
    ],
    "semicolon": true,
    "triple-equals": [
      true,
      "allow-null-check"
    ],
    "typedef-whitespace": [
      true,
      {
        "call-signature": "nospace",
        "index-signature": "nospace",
        "parameter": "nospace",
        "property-declaration": "nospace",
        "variable-declaration": "nospace"
      }
    ],
    "curly": true,
    "variable-name": [
      true,
      "ban-keywords",
      "check-format",
      "allow-trailing-underscore"
    ],
    "whitespace": [
      true,
      "check-branch",
      "check-decl",
      "check-operator",
      "check-separator",
      "check-type"
    ]
  }
}
