<?xml version="1.0" encoding="utf-8"?>
<!-- Generator: Adobe Illustrator 17.1.0, SVG Export Plug-In . SVG Version: 6.00 Build 0)  -->
<!DOCTYPE svg PUBLIC "-//W3C//DTD SVG 1.1//EN" "http://www.w3.org/Graphics/SVG/1.1/DTD/svg11.dtd">
<svg version="1.1" id="Layer_1" xmlns="http://www.w3.org/2000/svg" xmlns:xlink="http://www.w3.org/1999/xlink" x="0px" y="0px"
	 viewBox="0 0 14.2 16" enable-background="new 0 0 14.2 16" xml:space="preserve">
<g>
	<path fill="#FFFFFF" d="M13.7,10.3l-3.4-1.6L8.8,8c0.6-0.4,1.1-1,1.5-1.8c0.3-0.6,0.4-1.3,0.4-2c0-0.4-0.1-0.8-0.2-1.1
		C10.2,1.3,8.8,0,7.1,0c-1.6,0-3,1.3-3.5,3C3.5,3.4,3.5,3.8,3.5,4.2c0,0.8,0.2,1.5,0.5,2.1C4.3,7,4.8,7.6,5.4,8L4.1,8.6l-3.5,1.6
		C0.2,10.4,0,10.8,0,11.2v3.3v0.6C0,15.6,0.4,16,0.8,16h12.6c0.4,0,0.8-0.4,0.8-0.9v-0.6v-3.3C14.2,10.8,14,10.4,13.7,10.3z"/>
</g>
</svg>
